{
  "ABIRoot": {
    "kind": "Root",
    "name": "TopLevel",
    "printedName": "TopLevel",
    "children": [
      {
        "kind": "Import",
        "name": "Foundation",
        "printedName": "Foundation",
        "declKind": "Import",
        "moduleName": "DESwiftFibonacci",
        "declAttributes": [
          "RawDocComment"
        ]
      },
      {
        "kind": "TypeDecl",
        "name": "DEFibonacci",
        "printedName": "DEFibonacci",
        "children": [
          {
            "kind": "Constructor",
            "name": "init",
            "printedName": "init()",
            "children": [
              {
                "kind": "TypeNominal",
                "name": "DEFibonacci",
                "printedName": "DESwiftFibonacci.DEFibonacci",
                "usr": "s:16DESwiftFibonacci11DEFibonacciV"
              }
            ],
            "declKind": "Constructor",
            "usr": "s:16DESwiftFibonacci11DEFibonacciVACycfc",
            "mangledName": "$s16DESwiftFibonacci11DEFibonacciVACycfc",
            "moduleName": "DESwiftFibonacci",
            "declAttributes": [
              "AccessControl"
            ],
            "init_kind": "Designated"
          },
          {
            "kind": "Function",
            "name": "calculate",
            "printedName": "calculate(usingNumber:onCompletion:)",
            "children": [
              {
                "kind": "TypeNominal",
                "name": "Void",
                "printedName": "()"
              },
              {
                "kind": "TypeNominal",
                "name": "Int",
                "printedName": "Swift.Int",
                "usr": "s:Si"
              },
              {
                "kind": "TypeFunc",
                "name": "Function",
                "printedName": "(Swift.Int) -> ()",
                "children": [
                  {
                    "kind": "TypeNominal",
                    "name": "Void",
                    "printedName": "()"
                  },
                  {
                    "kind": "TypeNominal",
                    "name": "Int",
                    "printedName": "Swift.Int",
                    "usr": "s:Si"
                  }
                ]
              }
            ],
            "declKind": "Func",
            "usr": "s:16DESwiftFibonacci11DEFibonacciV9calculate11usingNumber12onCompletionySi_ySictF",
            "mangledName": "$s16DESwiftFibonacci11DEFibonacciV9calculate11usingNumber12onCompletionySi_ySictF",
            "moduleName": "DESwiftFibonacci",
            "declAttributes": [
              "AccessControl",
              "RawDocComment"
            ],
            "funcSelfKind": "NonMutating"
          }
        ],
        "declKind": "Struct",
        "usr": "s:16DESwiftFibonacci11DEFibonacciV",
        "mangledName": "$s16DESwiftFibonacci11DEFibonacciV",
        "moduleName": "DESwiftFibonacci",
        "declAttributes": [
          "AccessControl",
          "RawDocComment"
        ]
      }
    ],
    "json_format_version": 8
  },
  "ConstValues": []
}